seed: 1 
size: 1000000000
threads: 2
gen 1658970
radix size: 16
seq cummulative 2.194 6.66952 9.01204e-05 53.331 62.1946
	seq 66877486
par cummulative 2.29454 10.0527 0.00623798 37.6779 50.0314
	par 55295676
