seed: 1 
size: 1000000000
threads: 1
gen 1648248
radix size: 16
seq cummulative 2.19368 6.28703 9.02899e-05 53.6418 62.1226
	seq 66748072
par cummulative 2.21476 14.6803 0.00325741 80.451 97.3492
	par 102493722
