seed: 1 
size: 100000000
threads: 20
gen 220959
radix size: 4
seq cummulative 0.871372 0.848585 2.18395e-06 1.50631 3.22627
	seq 3730097
par cummulative 1.02594 3.86405 5.71003e-05 3.81925 8.70929
	par 9212602
