seed: 1 
size: 1000
threads: 20
gen 3221
radix size: 16
seq cummulative 0.000403551 9.09343e-06 0.000142248 1.13072e-05 0.0005662
	seq 687
par cummulative 0.468762 0.000196267 0.0541407 0.000218644 0.523318
	par 728559
