seed: 1 
size: 1000000
threads: 20
gen 4675
radix size: 16
seq cummulative 0.00397074 0.00740821 0.000107909 0.0526194 0.0641063
	seq 72833
par cummulative 0.421394 0.0225448 0.0589551 0.0271287 0.530023
	par 771115
